…
The data provided by FanGraphs are comprised of standard and advanced statistics for position players or batters with a minimum of 1000 plate appearances during the so-called “juiced ball” era, specifically from 2016 to 2019 regular seasons. In addition, there are data on the particular pitches these batters faced and the way they made contact on each pitch with batted ball data. This will be joined by statistics that evaluate how valuable these players are and how good they have been in the past four seasons.

Baseball Savant’s Statcast search has information on all pitches thrown since the technology was implemented in 2014. In this case, I am looking at characteristics of the baseballs that were hit by those in the FanGraphs list of position players.I anticipate to join the data from Baseball Savant because it provides data not available on FanGraphs such as launch angle, launch speed, and weighted On-Base Average using launch speed/angle.

baseball_savant2 <- baseball_savant %>%
  select(-pitches, -player_id, -total_pitches, -pitch_percent, -(ba:woba), -hits, -abs, -(spin_rate:pos9_int_start_distance))
baseball_savant3 <- rename(baseball_savant2, Name = player_name)

(juiced_ball_era <- fangraphs2 %>% 
  inner_join(baseball_savant3, by = "Name"))
## # A tibble: 292 x 37
##    Name   Team      H    HR   AVG `BB%` `K%`    OPS   ISO BABIP `LD%` `GB%`
##    <chr>  <chr> <dbl> <dbl> <dbl> <chr> <chr> <dbl> <dbl> <dbl> <chr> <chr>
##  1 Mike … Ange…   580   146 0.307 18.4… 19.7… 1.06  0.303 0.336 22.7… 33.7…
##  2 J.D. … - - -   635   146 0.312 10.5… 23.4… 0.985 0.288 0.357 21.4… 42.0…
##  3 Aaron… Yank…   387   110 0.273 16.1… 31.6… 0.952 0.285 0.357 23.4… 38.4…
##  4 Juan … Nati…   274    56 0.287 16.2… 20.0… 0.937 0.248 0.323 19.6… 46.8…
##  5 Chris… - - -   690   119 0.308 11.6… 20.4… 0.934 0.234 0.354 22.1… 52.1…
##  6 Fredd… Brav…   680   123 0.303 12.2… 20.1… 0.944 0.246 0.346 28.7… 35.1…
##  7 Charl… Rock…   764   127 0.315 7.7 % 17.6… 0.934 0.243 0.346 24.0… 39.5…
##  8 Nolan… Rock…   729   157 0.303 9.8 % 15.6… 0.947 0.271 0.309 19.9… 36.2…
##  9 Joey … Reds    640    92 0.299 16.3… 16.3… 0.91  0.194 0.333 26.6… 39.2…
## 10 Josh … - - -   464   115 0.269 15.2… 21.2… 0.918 0.263 0.295 19.8… 41.0…
## # … with 282 more rows, and 25 more variables: `FB%` <chr>, `HR/FB` <chr>,
## #   `Pull%` <chr>, `Cent%` <chr>, `Oppo%` <chr>, `Soft%` <chr>,
## #   `Med%` <chr>, `Hard%` <chr>, wFB <dbl>, wSL <dbl>, wCB <dbl>,
## #   wCH <dbl>, `wFB/C` <dbl>, `wSL/C` <dbl>, `wCB/C` <dbl>, `wCH/C` <dbl>,
## #   `wRC+` <dbl>, wOBA <dbl>, Bat <dbl>, WAR <dbl>, WPA <dbl>,
## #   xwoba <dbl>, xba <dbl>, launch_speed <dbl>, launch_angle <dbl>
…
